-------------------------------------------------------------------------------
Test set: prd.outilsAffectationProjet.dao.EncadrantDaoTest
-------------------------------------------------------------------------------
Tests run: 7, Failures: 0, Errors: 0, Skipped: 0, Time elapsed: 3.308 sec
